{
  "https://deno.land/std@v0.50.0/path/_util.ts": "b678a7ecbac6b04c1166832ae54e1024c0431dd2b340b013c46eb2956ab24d4c",
  "https://deno.land/x/bcrypt@v0.2.1/mod.ts": "6ed1ba413208fa23109f5055fc58eb5f62fc6cee863142b66e7b90be3f8bab4b",
  "https://deno.land/x/oak@v5.3.1/negotiation/language.ts": "62ef13ea3146538dd52a4666611bd423ebb9a6438e7312398e17a4d16dbafb51",
  "https://deno.land/std@0.58.0/ws/mod.ts": "7063b3f6b9fcd4ef766c35b0588c85c4160999ef70a4cef92377d709848d8b52",
  "https://deno.land/std@0.58.0/path/separator.ts": "9dd15d46ff84a16e13554f56af7fee1f85f8d0f379efbbe60ac066a60561f036",
  "https://deno.land/std@0.58.0/_util/has_own_property.ts": "91a2ef2fae5d941643a6472b97cac7ed8060a96deb66f4fafb4a2750c8af18e5",
  "https://deno.land/x/oak@v5.3.1/router.ts": "24c0896fd36924850be1c4b4254177bf570003791bdf8f49bc8b271181e563ac",
  "https://deno.land/x/oak@v5.3.1/negotiation/common.ts": "f54d599d37408005f8c565d0f6505de51fed31feaa3654a7758e2359c006b02c",
  "https://deno.land/x/plugin_prepare@v0.6.0/mod.ts": "9362e4cae19b3c1b7abf8ecbec27062eeaad2a57aa133008fdfe982f3a96f03c",
  "https://raw.githubusercontent.com/chiefbiiko/sha512/v1.0.3/deps.ts": "2e1af51a48c8507017fdb057b950366601b177fb7e73d5de54c1b3e0e115d72e",
  "https://raw.githubusercontent.com/pillarjs/path-to-regexp/v6.1.0/src/index.ts": "8747ddaf85a761df4059cbc48a78cf710106f6b4c9d6932feb4d35120ac0990a",
  "https://deno.land/x/djwt@v0.9.0/create.ts": "b9dae152468f2c47a88e45f8462ac8add6fcfc66391668590bf617b83a4e41b1",
  "https://raw.githubusercontent.com/chiefbiiko/hmac/master/mod.ts": "83590b95de468d0cf5398b7631b4fb62a64226786247fe265482045d799e8f97",
  "https://deno.land/x/djwt@v0.9.0/base64/base64.ts": "38ccd234d7b6146572adcd56dda73eb708725d89105182d3f3a975ba60b27387",
  "https://deno.land/x/oak@v5.3.1/negotiation/encoding.ts": "b6b351150dfaa37d43c1e4679f0afa7ee70c2fa775d8bc8b9e9baf15bcf65888",
  "https://deno.land/std@0.58.0/io/util.ts": "7b8f13e59dd717d52b94fe0445f1c0b42b65fee7ab39af4043ef8e3ea349d360",
  "https://deno.land/x/lodash@4.17.15-es/isSymbol.js": "f0dc1666c3cec2306cd4fd0f63a9a7ab1f25ed21d2db6664b1edc81bd3641a41",
  "https://deno.land/x/lodash@4.17.15-es/_getRawTag.js": "0023dec54160317b70d52df1d7918638bc16a2869b1bf355f0a4f3e755aa6faf",
  "https://deno.land/x/checksum@1.4.0/mod.ts": "df8282cc1ecfd0f148535337c8bec077a1630e96a2012f2d19b2ca380f2c88c2",
  "https://deno.land/std@0.58.0/http/server.ts": "a7849cd4ce0f9863cb674fd947d7451e61f978c9501e458fe4996ad2d2367a9b",
  "https://deno.land/std@v0.61.0/io/bufio.ts": "dd1fc575524fe8b44e128091ba0e6833be7d0966336ef12a407544440b762e17",
  "https://deno.land/x/mongo@v0.8.0/mod.ts": "bb1054073b6526126336b9dadcc89366facca6ce0bddb9cf3dc5fcf80dd677b7",
  "https://deno.land/std@0.58.0/textproto/mod.ts": "baf452274ed76c703845a6f48757bd107215bb513b424a0672549d4b6c879153",
  "https://deno.land/x/oak@v5.3.1/util.ts": "4db758c7ebc4902d79df495cc0c9aec3199f437d8fb190650703508dd7356ab6",
  "https://deno.land/x/lodash@4.17.15-es/_basePropertyOf.js": "a62950da12b7236a1524bc1191d43ed2edc6e93827f1b12e903d71f9f262e15b",
  "https://deno.land/std@v0.50.0/path/_constants.ts": "f6c332625f21d49d5a69414ba0956ac784dbf4b26a278041308e4914ba1c7e2e",
  "https://deno.land/x/lodash@4.17.15-es/_freeGlobal.js": "0b65c37b3c1ce6d1800cb59a330dde73f1009f0d10eeaf8fd45f7607b87db4c5",
  "https://deno.land/x/djwt@v0.9.0/validate.ts": "ebf2b7af381a0189d2f61035950ab5bb8dc585ba0988da55c2d521c1a79fae79",
  "https://deno.land/x/lodash@4.17.15-es/escape.js": "7babdce893618e4104b3baec5664f7d645b9a18d38e94ed09c4430ebb0f0a0ff",
  "https://deno.land/std@v0.61.0/encoding/utf8.ts": "8654fa820aa69a37ec5eb11908e20b39d056c9bf1c23ab294303ff467f3d50a1",
  "https://deno.land/x/media_types@v2.3.7/deps.ts": "0ae24f129e2075dc18adeba5574319ec416a6053f2b8a7772d562deda5564bcc",
  "https://deno.land/std@v0.50.0/path/interface.ts": "89f6e68b0e3bba1401a740c8d688290957de028ed86f95eafe76fe93790ae450",
  "https://deno.land/x/lodash@4.17.15-es/_arrayMap.js": "ae3521733bd602f0f0443562ca13d3d1c8f42e130d4d4b0deacd931b68b0c60b",
  "https://deno.land/std@v0.50.0/path/_globrex.ts": "30146377e2c49ea49f049a18b7d3a0504150ff29509d28f4938ef2711cf38302",
  "https://deno.land/std@v0.50.0/path/mod.ts": "a789541f8df9170311daa98313c5a76c06b5988f2948647957b3ec6e017d963e",
  "https://deno.land/std@0.58.0/bytes/mod.ts": "5ad1325fc232f19b59fefbded30013b4bcd39fee4cf1eee73d6a6915ae46bdcd",
  "https://deno.land/x/checksum@1.4.0/hash.ts": "89ebbf7c57576e20462badc05bfb4a7ac01fe7668b6908cd547c79067c4221b9",
  "https://deno.land/x/lodash@4.17.15-es/_baseToString.js": "dc45840c564e75b058f8492a207d84a80629facdc33d80c4f05018aacdad675b",
  "https://deno.land/x/lodash@4.17.15-es/_Symbol.js": "631160c3c0cbd05ec8a3d1934ded4a312504a29f04a00be2b29372d00dd6bc6d",
  "https://deno.land/std@0.58.0/async/mux_async_iterator.ts": "f6ca1b70f05e3cb676956d70a3230c99925288cf67e4e0b0bbaf34759b41945b",
  "https://deno.land/x/dotenv@v0.5.0/util.ts": "15875ce1e2840d3d3c7b0f74d699218be065c23accd0737993cbf51ea216d0c5",
  "https://deno.land/x/oak@v5.3.1/application.ts": "7fedaaa4b2026d655b91c22436eb0130308edc8f41d2f0b73e6f5cd69e16eff3",
  "https://deno.land/x/dejs/mod.ts": "9f524663ba0eff4d8fe18ae59873d48318f4c339b7dc283a9447644d52381586",
  "https://deno.land/std@v0.61.0/bytes/mod.ts": "b1a149ac741728db00bda9ce1a2d044f248edd5ac95e708a6cc501bfd3adb4a7",
  "https://deno.land/x/oak@v5.3.1/multipart.ts": "562263735b910cf6927052afe492459e284b2073d3e04dd0bf45b863513c9be3",
  "https://deno.land/std@0.58.0/path/win32.ts": "91dfd12ddaabec7fa4a8052e16ec56a260722a505e3bb8dfc35041651af38322",
  "https://deno.land/std@v0.50.0/log/logger.ts": "6328f806b20eeb0d36723aa2e785968a68c1e95ea6ac67757ed6047ac04ee150",
  "https://raw.githubusercontent.com/chiefbiiko/sha256/v1.0.2/deps.ts": "2e1af51a48c8507017fdb057b950366601b177fb7e73d5de54c1b3e0e115d72e",
  "https://deno.land/std@v0.50.0/fmt/colors.ts": "127ce39ca2ad9714d4ada8d61367f540d76b5b0462263aa839166876b522d3de",
  "https://deno.land/std@0.58.0/path/mod.ts": "6de8885c2534757097818e302becd1cefcbc4c28ac022cc279e612ee04e8cfd1",
  "https://deno.land/std@0.58.0/path/_interface.ts": "5876f91d35fd42624893a4aaddaee352144e1f46e719f1dde6511bab7c3c1029",
  "https://deno.land/x/oak@v5.3.1/response.ts": "91e594ff194e6b4d26ad0ffca698a2a3c960b7664176614f2732d570d279a177",
  "https://deno.land/x/bcrypt@v0.2.1/bcrypt/base64.ts": "b7becddff81ffe026f8caca4128ed86ddc67ebd3d5c5eb7c92673f5f576cc383",
  "https://deno.land/x/oak@v5.3.1/content_disposition.ts": "1504bb85669e6c7e6dd30210fa7e73c55aa40195ed40a090f4ad58568c2b9882",
  "https://deno.land/x/oak@v5.3.1/context.ts": "506f2c42657becf9a45ffb02efc6d131eb55f2364950c0ce209d9272586c3711",
  "https://raw.githubusercontent.com/chiefbiiko/sha512/v1.0.3/mod.ts": "33190babd4c0e748bb2568fd003444487c8798c8c3a618f6593098c12805fe15",
  "https://deno.land/x/mongo@v0.8.0/ts/result.ts": "11ba6400f8e60b9981a7c2176311caedeae8c6197cc3e3a14575d220821e6795",
  "https://deno.land/std@v0.61.0/_util/assert.ts": "e1f76e77c5ccb5a8e0dbbbe6cce3a56d2556c8cb5a9a8802fc9565af72462149",
  "https://deno.land/std@v0.50.0/path/win32.ts": "61248a2b252bb8534f54dafb4546863545e150d2016c74a32e2a4cfb8e061b3f",
  "https://deno.land/x/checksum@1.4.0/md5.ts": "1bb0889eaec838d5c1f219e0533277fe5ea10806d022920b6f0f2f8c398fec77",
  "https://deno.land/std@v0.50.0/path/separator.ts": "7bdb45c19c5c934c49c69faae861b592ef17e6699a923449d3eaaf83ec4e7919",
  "https://deno.land/x/lodash@4.17.15-es/isObjectLike.js": "e45d69136695e8568c6fb3c7327f96ac1a8ff7284b1b22f26fb4654255fd0c6c",
  "https://deno.land/std@0.58.0/path/_globrex.ts": "696996deed47bd98fcab9de0034233380ead443a5cd702631151c6a71e3d21a2",
  "https://deno.land/std@v0.50.0/fs/exists.ts": "6012ed95a822629401133435111d58fb07c265d19d463bf3a31be8f0bf8f1dff",
  "https://raw.githubusercontent.com/chiefbiiko/hmac/master/deps.ts": "fb061e6fa0fd96f455ef647c57e9e6309a86fb0bf484447fc6cb38e57262192f",
  "https://deno.land/std/encoding/hex.ts": "ffbce6a0261248fe76869295809d0507d3d424f277998543abc86c82e5b10405",
  "https://deno.land/x/lodash@4.17.15-es/_baseGetTag.js": "3a9eebe37ba231eff0380b5f76ac5b5fcee4590665642fd052d77aa51c7d063f",
  "https://deno.land/std@0.58.0/path/_util.ts": "feacfbe104df3baf2a08ca80263d6a9cf63f9c32e7c9cbe54602ec12864a72e9",
  "https://deno.land/std@0.58.0/io/ioutil.ts": "1e495019c3bf0510851cea66000b397929151a16bd1f158eff3767f157cb7781",
  "https://deno.land/x/lodash@4.17.15-es/isArray.js": "0d9bcdfdf53955d9253076ddd68e0b992b2c91fb8364baa2ca971e57cbb74e4b",
  "https://deno.land/std/encoding/utf8.ts": "8654fa820aa69a37ec5eb11908e20b39d056c9bf1c23ab294303ff467f3d50a1",
  "https://deno.land/x/oak@v5.3.1/negotiation/mediaType.ts": "7e25cc34600beea3bf0b0879ff1783c752260fcb517dffea2e122830c36e8451",
  "https://deno.land/std@0.58.0/testing/asserts.ts": "bbd5b5ac3c106df2a56de9dfccc53084aa522299b0f00af6987987d82abd2087",
  "https://deno.land/x/lodash@4.17.15-es/_escapeHtmlChar.js": "96451046e1ca9a2e38dafdd0635f163976631bea1a32688bfbed105f1c224940",
  "https://deno.land/x/lodash@4.17.15-es/toString.js": "3f4c8d942944c3fe622e9fba36275b6291e834113619b266909822becfa94976",
  "https://deno.land/std@v0.50.0/path/glob.ts": "ab85e98e4590eae10e561ce8266ad93ebe5af2b68c34dc68b85d9e25bccb4eb7",
  "https://deno.land/x/oak@v5.3.1/send.ts": "3f937db7cbf2643ca8792b30b37400a57457385efa4a3cea6f484dd0c33b2877",
  "https://deno.land/x/oak@v5.3.1/helpers.ts": "ffc907c49368dcbe591f0bfee122a354b3a66def9621de48e06bbbdefe913b3d",
  "https://deno.land/std@0.58.0/path/glob.ts": "fbce75b7714db355dca9abd0df107177dd3b7b76110e7ab8b783020f1e6ef895",
  "https://deno.land/std@v0.50.0/path/common.ts": "95115757c9dc9e433a641f80ee213553b6752aa6fbb87eb9f16f6045898b6b14",
  "https://raw.githubusercontent.com/chiefbiiko/sha1/v1.0.3/mod.ts": "146a101c9776cc9c807053c93f23e4b321ade5251f65745df418f4a75d5fd27b",
  "https://deno.land/x/lodash@4.17.15-es/_root.js": "df58ff96c454ca91ace20d20e6af49b354c70dfba7e737adc00cd23e8ff77168",
  "https://deno.land/x/djwt@v0.9.0/base64/base64url.ts": "f37fb7955239d84e1272ae45bf1316979d9e6c965e09f68f1e6b06fb601d4e47",
  "https://deno.land/std@v0.50.0/testing/diff.ts": "8f591074fad5d35c0cafa63b1c5334dc3a17d5b934f3b9e07172eed9d5b55553",
  "https://deno.land/x/oak@v5.3.1/server_sent_event.ts": "a0c19d312ec9aa62b11735307eb44374245ae1261539b8d2abede1d09fdb4e65",
  "https://deno.land/x/mongo@v0.8.0/ts/database.ts": "3dc54b0a4fe4e09d4f9457fb4a1d0cfb5d7a4611a2ad0b5efcf4d4737494a70b",
  "https://deno.land/x/oak@v5.3.1/httpError.ts": "7e09654eb5e0843beca87934b9fea7a8af79f9da0cd15c220197e7c619a96708",
  "https://deno.land/x/oak@v5.3.1/headers.ts": "cd42a5d5521979d11feb3431f34a6c8bd5c39e3feb2b121163724e2cbaf5e25a",
  "https://deno.land/std@0.58.0/_util/assert.ts": "e1f76e77c5ccb5a8e0dbbbe6cce3a56d2556c8cb5a9a8802fc9565af72462149",
  "https://deno.land/std@0.58.0/io/bufio.ts": "b911352f3688e9b782958e27bc19a016d17bc9ff0da863ac6e3f8e11751bd61b",
  "https://deno.land/std@v0.50.0/log/levels.ts": "d274b41f2dc909c6eef4e71c8a50ccbc81ea4e1df28cb268f02942966a205593",
  "https://deno.land/x/media_types@v2.3.7/mod.ts": "94141d7c415fcdad350fec9d36d77c18334efe25766db6f37d34709c896881ed",
  "https://deno.land/std@0.58.0/fmt/colors.ts": "06444b6ebc3842a4b2340d804bfa81fc5452a03513cbb81bd7f6bf8f4b8f3ac4",
  "https://deno.land/x/oak@v5.3.1/mod.ts": "468892a6945299d4a74c593c602f57d7c7457effb9be3a70c6fb78bd538fc034",
  "https://deno.land/x/oak@v5.3.1/keyStack.ts": "a490066c90cbfea6b7de73303b9530e68ffbe86ff48b99ff17dab1cc9cf0751f",
  "https://deno.land/std@0.58.0/encoding/utf8.ts": "8654fa820aa69a37ec5eb11908e20b39d056c9bf1c23ab294303ff467f3d50a1",
  "https://deno.land/x/oak@v5.3.1/middleware.ts": "b4959e727eee68aa3a15468044a7a7610bbfacbb0142232e0385dac36db1865e",
  "https://deno.land/x/dotenv@v0.5.0/load.ts": "4eba9b76084c302d714c34a4976bbd91d0015faf9f219d8c8f8e8da0adeccdd5",
  "https://deno.land/x/oak@v5.3.1/negotiation/charset.ts": "b4c2e0c49dd5122f130f95bf29508448d983c424801b5bc304b00288b5ae3195",
  "https://deno.land/x/bcrypt@v0.2.1/main.ts": "4ac3ccc2247ce729f6c7d57654909949b62aafdabd996483c97f34aa1afac82a",
  "https://deno.land/x/mongo@v0.8.0/ts/collection.ts": "147f7d5f4f3003d748dc9f4f2125cb23ac9ade89f9db72cf29f5bfc273342b72",
  "https://deno.land/std@0.58.0/hash/sha256.ts": "1aedfb09bcb067929de6ad78f3b074b802ec94ec96c8a07b80475d90942cb221",
  "https://deno.land/x/oak@v5.3.1/tssCompare.ts": "bb88898156aad3157c30eebf87bc7312a2099f099c135090a937734fd8a15978",
  "https://deno.land/std@0.58.0/path/_constants.ts": "e11f32a36644e04dce243f3c1f30c02cc5d149827f48a755628176f0707cfc70",
  "https://deno.land/x/oak@v5.3.1/request.ts": "700a53a137fa2ddb9f2fb4acb5c5ecf3183b2e49456262cfac778e1af9b75222",
  "https://deno.land/std@0.58.0/hash/sha1.ts": "c1a97bde767b98b88495470f39c30c37e44ac3984409f120ef65fd84c9d27608",
  "https://deno.land/x/mongo@v0.8.0/deps.ts": "51355f8cb4f7c691c39eddaf65d5c879f1b35c9af80f9e7388b5702a8d470ddf",
  "https://deno.land/x/bcrypt@v0.2.1/bcrypt/bcrypt.ts": "54cfa700780904dc207ec10d342c2f906d7e6dbf5f48e665f22cf939d47e20f9",
  "https://deno.land/x/oak@v5.3.1/buf_reader.ts": "ced6a04ac8f529a18e1e85182ffe0cf82ee9477e1a8f5441a02e923f62bebc54",
  "https://deno.land/x/oak@v5.3.1/cookies.ts": "af291cb64ae0ccc40e6d777980d89d694e971131222130b1b11e9200b9cae6f1",
  "https://deno.land/x/lodash@4.17.15-es/_objectToString.js": "8f1bb6043dc27219e71dfae28900a7f214a0856118a628efeb120169fe46fe8c",
  "https://deno.land/std@v0.50.0/path/posix.ts": "b742fe902d5d6821c39c02319eb32fc5a92b4d4424b533c47f1a50610afbf381",
  "https://deno.land/x/oak@v5.3.1/deps.ts": "ee1aafe370c7a90d187c6c355580204f58b4522df0bbe8774b516c0b48881f22",
  "https://deno.land/x/media_types@v2.3.7/db.ts": "56a9deab286b6283e1df021d74ee3319353f27f7827716b6443427fff2fc6e24",
  "https://deno.land/std@0.58.0/async/delay.ts": "35957d585a6e3dd87706858fb1d6b551cb278271b03f52c5a2cb70e65e00c26a",
  "https://deno.land/x/checksum@1.4.0/sha1.ts": "a608a6493694b7d734acfc4eee83e09bd9deaa4909cdac07f3eed3db427f97ae",
  "https://deno.land/x/dotenv@v0.5.0/mod.ts": "7c746f2f889812e6d467279d5c4603e9d21fa025f353386e35aec66702d4bf51",
  "https://deno.land/x/base64/base.ts": "5c03afb3d48787006eb15dba6aa3045f65d4da8be80573fc7731c8d9b187a27d",
  "https://deno.land/x/mongo@v0.8.0/ts/client.ts": "ea54c268e2d0ac585dbae5ff8b7f1a43f19832223ef5631f2896c9473ef00846",
  "https://deno.land/std@v0.50.0/testing/asserts.ts": "213fedbb90a60ae232932c45bd62668f0c5cd17fc0f2a273e96506cba416d181",
  "https://deno.land/std@0.58.0/async/mod.ts": "bf46766747775d0fc4070940d20d45fb311c814989485861cdc8a8ef0e3bbbab",
  "https://deno.land/x/mongo@v0.8.0/ts/types.ts": "2dca2a49354fe98a8c4795000eee7c956f3699ff00a146d46b3c1f85ccc30415",
  "https://deno.land/x/oak@v5.3.1/isMediaType.ts": "77b94675822d7de7f6af21bb765ed9f25b956c7ac4d292dd66c2ecb9ea9478e5",
  "https://deno.land/x/dejs/vendor/https/deno.land/x/lodash/escape.js": "653e406a1b9c947918c124ddbfb8d39d5cebe86884b819974b5de13279d52df5",
  "https://raw.githubusercontent.com/chiefbiiko/sha256/v1.0.2/mod.ts": "f109aa5eeb201a0cbfaf44950b70a429838b187e8a84c5b810c1ac84953427cc",
  "https://deno.land/std@0.58.0/async/deferred.ts": "ac95025f46580cf5197928ba90995d87f26e202c19ad961bc4e3177310894cdc",
  "https://deno.land/std@v0.50.0/log/mod.ts": "13060c69f4cc4413f2c9527d811a2ea2b186897f0680f04417d8ea6816e2da4f",
  "https://raw.githubusercontent.com/chiefbiiko/std-encoding/v1.0.0/mod.ts": "4a927e5cd1d9b080d72881eb285b3b94edb6dadc1828aeb194117645f4481ac0",
  "https://deno.land/x/plugin_prepare@v0.6.0/deps.ts": "6c56dcef29f508a9b94c0a74c68c534b9ebfc59bd1d76f5ca94675971a3da9dd",
  "https://deno.land/std@0.58.0/testing/diff.ts": "77338e2b479626c096278d7b4a95f750753ee39558f314db6b794e8d8a98d515",
  "https://deno.land/std@0.58.0/path/common.ts": "e4ec66a7416d56f60331b66e27a8a4f08c7b1cf48e350271cb69754a01cf5c04",
  "https://deno.land/x/oak@v5.3.1/mediaTyper.ts": "042b853fc8e9c3f6c628dd389e03ef481552bf07242efc3f8a1af042102a6105",
  "https://deno.land/x/mongo@v0.8.0/ts/type_convert.ts": "6860a7acbbe0a950b0e0a811f668ac2708225c4891ff986a1d281cd963c9bbcb",
  "https://deno.land/x/dejs/vendor/https/deno.land/std/encoding/utf8.ts": "483abcfd7060d8607c86b7fc0770c343323c3410b3706b0cc9e44c299a581ab2",
  "https://deno.land/std@0.58.0/path/posix.ts": "514c39f5f7ca45bee2ace2a2e83da74dde5ff08fba837c71f86f459abe846fd7",
  "https://deno.land/x/mongo@v0.8.0/ts/util.ts": "f2b5097c239bd05a4d2665eb7b74bf74266fc5a9d1e9185ab2f5bdb9b5191b48",
  "https://deno.land/x/dejs/vendor/https/deno.land/std/io/bufio.ts": "cc9c8240175dc914b02efaf54752e4e8b98d307e8ef480ed8ef45c886912bb03",
  "https://deno.land/std@0.58.0/http/http_status.ts": "0ecc0799a208f49452023b1b927106ba5a2c13cc6cf6666345db028239d554ab",
  "https://deno.land/x/base64/base64url.ts": "08c12a021df3830eb21f97ab52a6b339650063d575f50af2d6c08c35a5f950dc",
  "https://deno.land/std@0.58.0/http/_io.ts": "7a31bf7d0167685d8d0ff4eca93b558cd26539695d1ddbd715ee28bf1dc7db17",
  "https://raw.githubusercontent.com/chiefbiiko/sha1/v1.0.3/deps.ts": "2e1af51a48c8507017fdb057b950366601b177fb7e73d5de54c1b3e0e115d72e",
  "https://deno.land/std@v0.50.0/log/handlers.ts": "7bad686e2ca4148eb7edfd3b29dafdf0ff5dbf4a414d2e99f4003d13a6830827"
}